{
	"debug" 			: true,
	"development_mode"  : true,

	"use_proxies" 		: false,

	"login_first"		: false,

	"yzylab"			: false,

	"adidas" : {
		"region" 				: "AU",
		
		"sku" 					: ["CM8278"],
		"captcha_products" 		: ["CM8278"],

		"dynamic" 				: false,
		"alternate"				: false,
		"sizes"					: [4,4.5,5,5.5,6,6.5,7,7.5,8,8.5,9,9.5,10,10.5,11,11.5,12,12.5,13],

		"accounts" 				: 1,
		"use_captcha" 			: true,

		"early_cart"			: false,
		"backend"				: false,
		"remove_shoe"			: false,
		"alt_region"			: false,
		"recreate_basket"		: true,

		"client_id"     		: "71814ac2-96fb-4543-9edb-a119f803d3eb",
		"xdwclientid" 			: "b6075d16-e2c8-4d0f-9d62-873451fd7800",

		
		"captcha" : {
			"site_key" 			: "6LdC0iQUAAAAAOYmRv34KSLDe-7DmQrUSYJH8eB",
			"server" 			: "35.229.16.103:6380"
		},

		"emails" : [
			"gmail.com"
		]
	},

	"captcha" : {
		"threads" : 1,
		"api_keys" : [
			"c6280acc893a7a3aa9347fa441767f44",
            "64006c753b9059e4a4012d80fdb489b5",
            "668b9c60e7284546c72c922e4566039f",
            "87a14a18413753cbed062b9e809f425a",
            "cb2183a805fcec0d72cc1875a22b2344",
            "01d3cf6d953119333f5a78ffc7d8a13d",
            "662fd6a615ef8b61efcf3187921876fd",
            "4891adbe8e47ba8f62528b0702cc9eac",
            "92d027466ddc8d3cfa6b918f6c438268",
            "2277b94834709cae4ed79b9bfc9cf073",
            "33880b5d9c0836b03a276e1acef829a1",
            "f474d78537209c361a6b7067ecc80fa0",
            "02f051a96d63aa97baae796086fc6b47",
            "3e4f6adf2dd6f6e5463be5c0fa7e1b3a",
            "73827fdf364a0cead5a50f203a7ac904",
            "c37f6a756eb917ef4bf70f1f8943dc88"
		]
	}
}
